{
  "tests": [
    {
      "targets": [
        "unit_tests"
      ],
      "profiles": [
        "Debug",
        "FaultyThreadsASan",
        "FaultyThreadsTSan"
      ]
    },
    {
      "targets": [
        "stress_tests"
      ],
      "profiles": [
        "FaultyFibers",
        "FaultyThreadsASan",
        "FaultyThreadsTSan"
      ]
    }
  ],
  "lint_files": [
    "atomic_stamped_ptr.hpp",
    "atomic_shared_ptr.hpp"
  ],
  "submit_files": [
    "atomic_stamped_ptr.hpp",
    "atomic_shared_ptr.hpp"
  ],
  "forbidden_patterns": [
    "mutex"
  ]
}
